{
  "port": "PORT",
  "eth": {
    "network_prefix": "ETH_NETWORK_PREFIX",
    "static_ip": "ETH_STATIC_IP"
  },
  "vpn": {
    "network_prefix": "VPN_NETWORK_PREFIX",
    "host_ip": "VPN_HOST_IP",
    "static_ip": "VPN_STATIC_IP"
  },
  "internet": {
    "ping_host": "INTERNET_PING_HOST"
  },
  "ssh": {
    "host": "SSH_HOST",
    "port": "SSH_PORT",
    "username": "SSH_USERNAME",
    "password": "SSH_PASSWORD",
    "dry_run": "SSH_DRY_RUN"
  }
}
